{
 "autoname": "format:{user}-{objective}",
 "creation": "2021-12-14 14:44:56.511105",
 "doctype": "DocType",
 "editable_grid": 1,
 "engine": "InnoDB",
 "field_order": [
  "user",
  "objective"
 ],
 "fields": [
  {
   "fieldname": "objective",
   "fieldtype": "Link",
   "label": "Thema",
   "options": "Beratungsthema"
  },
  {
   "fieldname": "user",
   "fieldtype": "Link",
   "label": "Berater/In",
   "options": "User"
  }
 ],
 "modified": "2021-12-27 15:41:37.494480",
 "modified_by": "Administrator",
 "module": "SPO",
 "name": "Beraterzuweisung",
 "owner": "Administrator",
 "permissions": [
  {
   "create": 1,
   "delete": 1,
   "email": 1,
   "export": 1,
   "print": 1,
   "read": 1,
   "report": 1,
   "role": "System Manager",
   "share": 1,
   "write": 1
  },
  {
   "create": 1,
   "delete": 1,
   "email": 1,
   "export": 1,
   "print": 1,
   "read": 1,
   "report": 1,
   "role": "SPO Poweruser",
   "share": 1,
   "write": 1
  },
  {
   "email": 1,
   "export": 1,
   "print": 1,
   "read": 1,
   "report": 1,
   "role": "Beratung",
   "share": 1
  }
 ],
 "quick_entry": 1,
 "sort_field": "modified",
 "sort_order": "DESC",
 "track_changes": 1
}