{
 "autoname": "format:ANF-{YYYY}-{######}",
 "creation": "2019-07-31 13:06:07.002394",
 "doctype": "DocType",
 "editable_grid": 1,
 "engine": "InnoDB",
 "field_order": [
  "section_dashboard",
  "dashboard_html",
  "section_typ",
  "anfrage_typ",
  "spo_ombudsstelle",
  "spo_ombudsstelle_details",
  "spital_st_gallen",
  "emr_grund_der_beratung",
  "emr_name_therapeut",
  "emr_ort_therapeut",
  "emr_resultat",
  "emr_problem",
  "emr_alter",
  "emr_geschlecht",
  "emr_komplement\u00e4rmethode",
  "kontakt_via",
  "problematik",
  "bestellung_von",
  "arzt_fachgebiet",
  "sterben",
  "definition_arzt_fachgebiet_andere",
  "name_zusatz_sonstige_versicherung",
  "scroll_top_0",
  "cb_0",
  "anonymisiert",
  "datum",
  "todesfall",
  "urteilsunfaehig",
  "section_person",
  "kontaktdaten_suchen",
  "patient_vorname",
  "patient_nachname",
  "patient_geburtsdatum",
  "patient_telefon",
  "patient_mobile",
  "patient_mail",
  "scroll_top_1",
  "break_1",
  "mitglied_erstellen",
  "patient_strasse",
  "patient_adress_zusatz",
  "patient_plz",
  "patient_ort",
  "patient_kanton",
  "patient_krankenkasse",
  "section_patienten_links",
  "patient",
  "customer",
  "patienten_kontakt",
  "patienten_adresse",
  "mitgliedschaft",
  "section_angehoerige",
  "ang_vorname",
  "ang_nachname",
  "ang_geburtsdatum",
  "ang_telefon",
  "ang_mobile",
  "ang_mail",
  "cb_angehoerige",
  "ang_strasse",
  "ang_adress_zusatz",
  "ang_plz",
  "ang_ort",
  "ang_kanton",
  "section_angehoerige_links",
  "ang",
  "ang_kontakt",
  "ang_adresse",
  "section_gesetzlicher_vertreter_1",
  "ges_ver_1_vorname",
  "ges_ver_1_nachname",
  "ges_ver_1_geburtsdatum",
  "ges_ver_1_telefon",
  "ges_ver_1_mobile",
  "ges_ver_1_email",
  "cb_ges_ver_1",
  "ges_ver_1_strasse",
  "ges_ver_1_zusatz",
  "ges_ver_1_plz",
  "ges_ver_1_ort",
  "ges_ver_1_kanton",
  "section_gesetzlicher_vertreter_2",
  "ges_ver_2_vorname",
  "ges_ver_2_nachname",
  "ges_ver_2_geburtsdatum",
  "ges_ver_2_telefon",
  "ges_ver_2_mobile",
  "ges_ver_2_email",
  "cb_ges_ver_2",
  "ges_ver_2_strasse",
  "ges_ver_2_zusatz",
  "ges_ver_2_plz",
  "ges_ver_2_ort",
  "ges_ver_2_kanton",
  "section_links_gesetzliche_vertreter",
  "ges_ver_1",
  "ges_ver_1_contact",
  "ges_ver_1_address",
  "cb_ges_ver_links",
  "ges_ver_2",
  "ges_ver_2_contact",
  "ges_ver_2_address",
  "section_kontakt_daten",
  "rsv_kontaktdaten",
  "section_rsv",
  "rsv",
  "rsv_kontakt",
  "rsv_adresse",
  "rechtsschutz_ref",
  "section_anfrage",
  "grundlage_anfrage",
  "sachverhalt_thema",
  "rat",
  "fusszeile",
  "scroll_top_2",
  "section_zeiterfassung",
  "absprung_einstellungen",
  "timer",
  "default_ts",
  "zeiten_uebersicht",
  "scroll_top_3",
  "amended_from"
 ],
 "fields": [
  {
   "fieldname": "section_dashboard",
   "fieldtype": "Section Break"
  },
  {
   "depends_on": "eval:doc.anfrage_typ=='Sonstiges'",
   "fieldname": "dashboard_html",
   "fieldtype": "HTML",
   "options": "<div id=\"limit\"></div>"
  },
  {
   "collapsible": 1,
   "fieldname": "section_typ",
   "fieldtype": "Section Break",
   "label": "Anfragen Typisierung"
  },
  {
   "fieldname": "anfrage_typ",
   "fieldtype": "Select",
   "in_list_view": 1,
   "in_preview": 1,
   "label": "Anfrage Typ",
   "options": "Hotline\nSonstiges\nMandats Anfrage\nMedien Anfrage\nAnfrage ohne Mitgliedschaft\nOnline-Beratung",
   "reqd": 1
  },
  {
   "collapsible": 1,
   "fieldname": "section_person",
   "fieldtype": "Section Break",
   "label": "Angaben zum Kunden"
  },
  {
   "fieldname": "scroll_top_1",
   "fieldtype": "Button",
   "label": "<i class=\"fa fa-chevron-up text-muted\"></i>"
  },
  {
   "fieldname": "break_1",
   "fieldtype": "Column Break"
  },
  {
   "fieldname": "mitglied_erstellen",
   "fieldtype": "Button",
   "label": "Kundenstamm anlegen"
  },
  {
   "fieldname": "mitgliedschaft",
   "fieldtype": "Link",
   "in_preview": 1,
   "label": "Mitgliedschaft",
   "options": "Mitgliedschaft"
  },
  {
   "collapsible": 1,
   "fieldname": "section_anfrage",
   "fieldtype": "Section Break",
   "label": "Angaben zur Anfrage"
  },
  {
   "fieldname": "scroll_top_2",
   "fieldtype": "Button",
   "label": "<i class=\"fa fa-chevron-up text-muted\"></i>"
  },
  {
   "collapsible": 1,
   "fieldname": "section_zeiterfassung",
   "fieldtype": "Section Break",
   "label": "Zeiterfassung"
  },
  {
   "allow_on_submit": 1,
   "fieldname": "timer",
   "fieldtype": "Float",
   "in_list_view": 1,
   "label": "Total verbuchte Zeit (in h)",
   "read_only": 1
  },
  {
   "fieldname": "scroll_top_3",
   "fieldtype": "Button",
   "label": "<i class=\"fa fa-chevron-up text-muted\"></i>"
  },
  {
   "fieldname": "rechtsschutz_ref",
   "fieldtype": "Data",
   "label": "Auftraggeber Referenznummer"
  },
  {
   "depends_on": "eval:in_list([\"Sonstiges\", \"Mandats Anfrage\", \"Anfrage ohne Mitgliedschaft\"], doc.anfrage_typ)",
   "fieldname": "spo_ombudsstelle",
   "fieldtype": "Select",
   "label": "SPO als Ombudsstelle",
   "options": "\nNein\nJa"
  },
  {
   "depends_on": "eval:doc.spo_ombudsstelle=='Ja'",
   "fieldname": "spo_ombudsstelle_details",
   "fieldtype": "Select",
   "label": "Ombudstelle von",
   "options": "\nMedbase\nMonvia\nSpital Leuggern (ASANA)\nSpital Menziken (ASANA)\nZ-Med\nGD St. Gallen\nEMR"
  },
  {
   "depends_on": "eval:doc.spo_ombudsstelle=='Ja' && doc.spo_ombudsstelle_details=='GD St. Gallen'",
   "fieldname": "spital_st_gallen",
   "fieldtype": "Data",
   "label": "Spital"
  },
  {
   "fieldname": "kontakt_via",
   "fieldtype": "Select",
   "label": "Kontakt via",
   "options": "\nTelefon\nBrief\nMail\nRechtsanwalt\nRechtsschutzversicherung\npers\u00f6nliche Beratung\nVideo-Call"
  },
  {
   "fieldname": "problematik",
   "fieldtype": "Select",
   "label": "Problematik",
   "options": "\nArzt: Honorar\nArzt: Aufkl\u00e4rung\nArzt: Zeugnis/KG\nArzt: Behandlung\nArzt: m\u00f6gl. Behandlungsfehler\nZA: Honorar\nZA: Behandlung\nZA: m\u00f6gl. Behandlungsfehler\nZA: KG/Info\nPsychiatrie\nSpital/Heim/Leistungszentrum\nPflege\nSPITEX\nTherapie/Arznei\nSterben\nKrankenkasse (Grundversicherung)\nSUVA/EMV/IV/UVG\nZusatz- / Sonstige Versicherung\nallg. Information\nAdressen\nBestellung"
  },
  {
   "allow_in_quick_entry": 1,
   "fieldname": "grundlage_anfrage",
   "fieldtype": "Text Editor",
   "label": "Grundlage der Anfrage"
  },
  {
   "fieldname": "sachverhalt_thema",
   "fieldtype": "Text Editor",
   "label": "Sachverhalt / Thema"
  },
  {
   "fieldname": "rat",
   "fieldtype": "Text Editor",
   "label": "Rat"
  },
  {
   "depends_on": "eval:doc.problematik=='Arzt: m\u00f6gl. Behandlungsfehler'",
   "fieldname": "arzt_fachgebiet",
   "fieldtype": "Select",
   "label": "Fachgebiet",
   "options": "An\u00e4sthesie\nChirurgie\nGyn\u00e4kologie\nOrthop\u00e4die\nMedizin\nKomplement\u00e4rmedizin\nAndere"
  },
  {
   "depends_on": "eval:doc.arzt_fachgebiet=='Andere'",
   "fieldname": "definition_arzt_fachgebiet_andere",
   "fieldtype": "Data",
   "label": "Definition \"Andere\""
  },
  {
   "depends_on": "eval:doc.problematik=='Zusatz- / Sonstige Versicherung'",
   "fieldname": "name_zusatz_sonstige_versicherung",
   "fieldtype": "Data",
   "label": "Name der Versicherung"
  },
  {
   "fieldname": "scroll_top_0",
   "fieldtype": "Button",
   "label": "<i class=\"fa fa-chevron-up text-muted\"></i>"
  },
  {
   "fieldname": "cb_0",
   "fieldtype": "Column Break"
  },
  {
   "default": "0",
   "depends_on": "eval:doc.anfrage_typ=='Hotline'",
   "fieldname": "anonymisiert",
   "fieldtype": "Check",
   "label": "Anonym"
  },
  {
   "depends_on": "eval:doc.spo_ombudsstelle=='Ja' && doc.spo_ombudsstelle_details=='EMR'",
   "fieldname": "emr_grund_der_beratung",
   "fieldtype": "Data",
   "label": "Grund der Beratung"
  },
  {
   "depends_on": "eval:doc.spo_ombudsstelle=='Ja' && doc.spo_ombudsstelle_details=='EMR'",
   "fieldname": "emr_name_therapeut",
   "fieldtype": "Data",
   "label": "Name Therapeut"
  },
  {
   "depends_on": "eval:doc.spo_ombudsstelle=='Ja' && doc.spo_ombudsstelle_details=='EMR'",
   "fieldname": "emr_ort_therapeut",
   "fieldtype": "Data",
   "label": "Ort Therapeut"
  },
  {
   "depends_on": "eval:doc.spo_ombudsstelle=='Ja' && doc.spo_ombudsstelle_details=='EMR'",
   "fieldname": "emr_resultat",
   "fieldtype": "Data",
   "label": "Resultat"
  },
  {
   "depends_on": "eval:doc.spo_ombudsstelle=='Ja' && doc.spo_ombudsstelle_details=='EMR'",
   "fieldname": "emr_problem",
   "fieldtype": "Select",
   "label": "Problem",
   "options": "Gel\u00f6st\nTeilweise gel\u00f6st\nNicht gel\u00f6st"
  },
  {
   "depends_on": "eval:doc.spo_ombudsstelle=='Ja' && doc.spo_ombudsstelle_details=='EMR'",
   "fieldname": "emr_alter",
   "fieldtype": "Int",
   "label": "Alter"
  },
  {
   "depends_on": "eval:doc.spo_ombudsstelle=='Ja' && doc.spo_ombudsstelle_details=='EMR'",
   "fieldname": "emr_geschlecht",
   "fieldtype": "Select",
   "label": "Geschlecht",
   "options": "M\u00e4nnlich\nWeiblich\nAnderes"
  },
  {
   "depends_on": "eval:doc.spo_ombudsstelle=='Ja' && doc.spo_ombudsstelle_details=='EMR'",
   "fieldname": "emr_komplement\u00e4rmethode",
   "fieldtype": "Data",
   "label": "Bezeichung Methode Komplement\u00e4r- und Alternativmedizin"
  },
  {
   "fieldname": "amended_from",
   "fieldtype": "Link",
   "label": "Amended From",
   "no_copy": 1,
   "options": "Anfrage",
   "print_hide": 1,
   "read_only": 1
  },
  {
   "depends_on": "eval:doc.problematik=='Sterben'",
   "fieldname": "sterben",
   "fieldtype": "Select",
   "label": "Sterben",
   "options": "Sterben PV\nSterben ACP"
  },
  {
   "depends_on": "eval:doc.problematik=='Bestellung'",
   "fieldname": "bestellung_von",
   "fieldtype": "Data",
   "label": "Bestellung von"
  },
  {
   "fieldname": "datum",
   "fieldtype": "Date",
   "label": "Anfrage Datum"
  },
  {
   "default": "0",
   "fieldname": "default_ts",
   "fieldtype": "Check",
   "hidden": 1,
   "label": "Default TS"
  },
  {
   "fieldname": "zeiten_uebersicht",
   "fieldtype": "HTML",
   "label": "Zeiten \u00dcbersicht",
   "options": "<div>Es wurden keine Zeiten erfasst</div>"
  },
  {
   "fieldname": "absprung_einstellungen",
   "fieldtype": "Button",
   "label": "Standardzeiten"
  },
  {
   "collapsible": 1,
   "depends_on": "eval:doc.anfrage_typ=='Mandats Anfrage'",
   "fieldname": "section_kontakt_daten",
   "fieldtype": "Section Break",
   "label": "Auftraggeber"
  },
  {
   "fieldname": "patient",
   "fieldtype": "Link",
   "label": "Kunde",
   "options": "Customer"
  },
  {
   "depends_on": "eval:doc.patient",
   "fieldname": "patienten_kontakt",
   "fieldtype": "Link",
   "label": "Kunden Kontakt",
   "options": "Contact"
  },
  {
   "depends_on": "eval:doc.patient",
   "fieldname": "patienten_adresse",
   "fieldtype": "Link",
   "label": "Kunden Adresse",
   "options": "Address"
  },
  {
   "fieldname": "rsv",
   "fieldtype": "Link",
   "label": "Auftraggeber",
   "options": "Customer"
  },
  {
   "depends_on": "eval:doc.anfrage_typ=='Mandats Anfrage'",
   "fieldname": "rsv_kontakt",
   "fieldtype": "Link",
   "label": "Auftraggeber Kontakt",
   "options": "Contact"
  },
  {
   "depends_on": "eval:doc.anfrage_typ=='Mandats Anfrage'",
   "fieldname": "rsv_adresse",
   "fieldtype": "Link",
   "label": "Auftraggeber Adresse",
   "options": "Address"
  },
  {
   "fetch_from": "patienten_kontakt.first_name",
   "fieldname": "patient_vorname",
   "fieldtype": "Data",
   "label": "Vorname"
  },
  {
   "fetch_from": "patienten_kontakt.last_name",
   "fieldname": "patient_nachname",
   "fieldtype": "Data",
   "label": "Nachname"
  },
  {
   "fetch_from": "patienten_kontakt.geburtsdatum",
   "fieldname": "patient_geburtsdatum",
   "fieldtype": "Date",
   "label": "Geburtsdatum"
  },
  {
   "fetch_from": "patienten_adresse.plz",
   "fieldname": "patient_plz",
   "fieldtype": "Data",
   "label": "Postleitzahl"
  },
  {
   "fetch_from": "patienten_adresse.kanton",
   "fetch_if_empty": 1,
   "fieldname": "patient_kanton",
   "fieldtype": "Select",
   "label": "Kanton",
   "options": "\nAG\nAI\nAR\nBE\nBL\nBS\nFL\nFR\nGE\nGL\nGR\nJU\nLU\nNE\nNW\nOW\nSG\nSH\nSO\nSZ\nTG\nTI\nUR\nVD\nVS\nZG\nZH\nKeine Angabe"
  },
  {
   "fetch_from": "patienten_kontakt.phone",
   "fieldname": "patient_telefon",
   "fieldtype": "Data",
   "label": "Telefon"
  },
  {
   "fieldname": "patient_krankenkasse",
   "fieldtype": "Data",
   "label": "Krankenkasse"
  },
  {
   "fetch_from": "patienten_adresse.address_line1",
   "fieldname": "patient_strasse",
   "fieldtype": "Data",
   "label": "Strasse und Hausnummer"
  },
  {
   "fetch_from": "patienten_adresse.city",
   "fieldname": "patient_ort",
   "fieldtype": "Data",
   "label": "Ort"
  },
  {
   "fetch_from": "patienten_kontakt.email_id",
   "fetch_if_empty": 1,
   "fieldname": "patient_mail",
   "fieldtype": "Data",
   "label": "E-Mail"
  },
  {
   "fetch_from": "patienten_kontakt.mobile_no",
   "fieldname": "patient_mobile",
   "fieldtype": "Data",
   "label": "Mobile"
  },
  {
   "fetch_from": "patienten_adresse.address_line2",
   "fieldname": "patient_adress_zusatz",
   "fieldtype": "Data",
   "label": "Adress Zusatz"
  },
  {
   "fieldname": "kontaktdaten_suchen",
   "fieldtype": "Button",
   "label": "Kontaktdaten suchen"
  },
  {
   "collapsible": 1,
   "fieldname": "section_patienten_links",
   "fieldtype": "Section Break",
   "label": "Links zu Kunden Daten"
  },
  {
   "collapsible": 1,
   "depends_on": "eval:doc.anfrage_typ=='Mandats Anfrage'",
   "fieldname": "section_rsv",
   "fieldtype": "Section Break",
   "label": "Links zu Auftraggeber"
  },
  {
   "fieldname": "rsv_kontaktdaten",
   "fieldtype": "HTML",
   "label": "Erfasste Kontaktdaten",
   "options": "<div>Bitte w\u00e4hlen Sie untenstehend eine RSV, eine Adresse und ein Kontakt aus.</div>"
  },
  {
   "fieldname": "todesfall",
   "fieldtype": "Select",
   "label": "Anfrage im Zusammenhang mit einem Todesfall?",
   "options": "Nein\nJa"
  },
  {
   "collapsible": 1,
   "depends_on": "eval:doc.todesfall=='Ja'",
   "fieldname": "section_angehoerige",
   "fieldtype": "Section Break",
   "label": "Angaben Angeh\u00f6rige"
  },
  {
   "fetch_from": "ang_kontakt.first_name",
   "fieldname": "ang_vorname",
   "fieldtype": "Data",
   "label": "Vorname (Ang.)"
  },
  {
   "fetch_from": "ang_kontakt.last_name",
   "fieldname": "ang_nachname",
   "fieldtype": "Data",
   "label": "Nachname (Ang.)"
  },
  {
   "fetch_from": "ang_kontakt.geburtsdatum",
   "fieldname": "ang_geburtsdatum",
   "fieldtype": "Date",
   "label": "Geburtsdatum (Ang.)"
  },
  {
   "fetch_from": "ang_kontakt.phone",
   "fieldname": "ang_telefon",
   "fieldtype": "Data",
   "label": "Telefon (Ang.)"
  },
  {
   "fetch_from": "ang_kontakt.mobile_no",
   "fieldname": "ang_mobile",
   "fieldtype": "Data",
   "label": "Mobile (Ang.)"
  },
  {
   "fetch_from": "ang_kontakt.email_id",
   "fieldname": "ang_mail",
   "fieldtype": "Data",
   "label": "E-Mail (Ang.)"
  },
  {
   "fieldname": "cb_angehoerige",
   "fieldtype": "Column Break"
  },
  {
   "fetch_from": "ang_adresse.address_line1",
   "fieldname": "ang_strasse",
   "fieldtype": "Data",
   "label": "Strasse und Hausnummer (Ang.)"
  },
  {
   "fetch_from": "ang_adresse.address_line2",
   "fieldname": "ang_adress_zusatz",
   "fieldtype": "Data",
   "label": "Adress Zusatz (Ang.)"
  },
  {
   "fetch_from": "doc.ang_adresse.plz",
   "fieldname": "ang_plz",
   "fieldtype": "Data",
   "label": "PLZ (Ang.)"
  },
  {
   "fetch_from": "ang_adresse.city",
   "fieldname": "ang_ort",
   "fieldtype": "Data",
   "label": "Ort (Ang.)"
  },
  {
   "fetch_from": "ang_adresse.kanton",
   "fetch_if_empty": 1,
   "fieldname": "ang_kanton",
   "fieldtype": "Select",
   "label": "Kanton (Ang.)",
   "options": "\nAG\nAI\nAR\nBE\nBL\nBS\nFR\nGE\nGL\nGR\nJU\nLU\nNE\nNW\nOW\nSG\nSH\nSO\nSZ\nTG\nTI\nUR\nVD\nVS\nZG\nZH"
  },
  {
   "collapsible": 1,
   "depends_on": "eval:doc.todesfall=='Ja'",
   "fieldname": "section_angehoerige_links",
   "fieldtype": "Section Break",
   "label": "Links zu Angeh\u00f6rige"
  },
  {
   "fieldname": "ang",
   "fieldtype": "Link",
   "label": "Angeh\u00f6rige",
   "options": "Customer"
  },
  {
   "fieldname": "ang_kontakt",
   "fieldtype": "Link",
   "label": "Angeh\u00f6rige Kontakt",
   "options": "Contact"
  },
  {
   "fieldname": "ang_adresse",
   "fieldtype": "Link",
   "label": "Angeh\u00f6rige Adresse",
   "options": "Address"
  },
  {
   "fieldname": "customer",
   "fieldtype": "Link",
   "hidden": 1,
   "label": "Customer (for link)",
   "options": "Customer"
  },
  {
   "default": "Nein",
   "fieldname": "urteilsunfaehig",
   "fieldtype": "Select",
   "label": "Anfrage im Zusammenhang mit urteilsunf\u00e4higer Person?",
   "options": "Nein\nJa"
  },
  {
   "collapsible": 1,
   "depends_on": "eval:doc.urteilsunfaehig=='Ja'",
   "fieldname": "section_gesetzlicher_vertreter_1",
   "fieldtype": "Section Break",
   "label": "Gesetzlicher Vertreter 1"
  },
  {
   "fetch_from": "ges_ver_1_contact.first_name",
   "fieldname": "ges_ver_1_vorname",
   "fieldtype": "Data",
   "label": "Vorname (Ges.-Ver. 1)"
  },
  {
   "fetch_from": "ges_ver_1_contact.last_name",
   "fieldname": "ges_ver_1_nachname",
   "fieldtype": "Data",
   "label": "Nachname (Ges.-Ver. 1)"
  },
  {
   "fetch_from": "ges_ver_1_contact.geburtsdatum",
   "fieldname": "ges_ver_1_geburtsdatum",
   "fieldtype": "Date",
   "label": "Geburtsdatum (Ges.-Ver. 1)"
  },
  {
   "fetch_from": "ges_ver_1_contact.phone",
   "fieldname": "ges_ver_1_telefon",
   "fieldtype": "Data",
   "label": "Telefon (Ges.-Ver. 1)"
  },
  {
   "fetch_from": "ges_ver_1_contact.mobile_no",
   "fieldname": "ges_ver_1_mobile",
   "fieldtype": "Data",
   "label": "Mobile (Ges.-Ver. 1)"
  },
  {
   "fetch_from": "ges_ver_1_contact.email_id",
   "fieldname": "ges_ver_1_email",
   "fieldtype": "Data",
   "label": "E-Mail (Ges.-Ver. 1)"
  },
  {
   "fieldname": "cb_ges_ver_1",
   "fieldtype": "Column Break"
  },
  {
   "fetch_from": "ges_ver_1_address.address_line1",
   "fieldname": "ges_ver_1_strasse",
   "fieldtype": "Data",
   "label": "Strasse und Hausnummer (Ges.-Ver. 1)"
  },
  {
   "fetch_from": "ges_ver_1_address.address_line2",
   "fieldname": "ges_ver_1_zusatz",
   "fieldtype": "Data",
   "label": "Adress Zusatz (Ges.-Ver. 1)"
  },
  {
   "fetch_from": "ges_ver_1_address.plz",
   "fieldname": "ges_ver_1_plz",
   "fieldtype": "Data",
   "label": "PLZ (Ges.-Ver. 1)"
  },
  {
   "fetch_from": "ges_ver_1_address.city",
   "fieldname": "ges_ver_1_ort",
   "fieldtype": "Data",
   "label": "Ort (Ges.-Ver. 1)"
  },
  {
   "fetch_from": "ges_ver_1_address.kanton",
   "fieldname": "ges_ver_1_kanton",
   "fieldtype": "Select",
   "label": "Kanton (Ges.-Ver. 1)",
   "options": "\nAG\nAI\nAR\nBE\nBL\nBS\nFR\nGE\nGL\nGR\nJU\nLU\nNE\nNW\nOW\nSG\nSH\nSO\nSZ\nTG\nTI\nUR\nVD\nVS\nZG\nZH"
  },
  {
   "collapsible": 1,
   "depends_on": "eval:doc.urteilsunfaehig=='Ja'",
   "fieldname": "section_links_gesetzliche_vertreter",
   "fieldtype": "Section Break",
   "label": "Links zu Gesetzlicher Vertreter"
  },
  {
   "fieldname": "ges_ver_1",
   "fieldtype": "Link",
   "label": "Gesetzlicher Vertreter 1",
   "options": "Customer"
  },
  {
   "fieldname": "ges_ver_1_contact",
   "fieldtype": "Link",
   "label": "Gesetzlicher Vertreter 1 Kontakt",
   "options": "Contact"
  },
  {
   "fieldname": "ges_ver_1_address",
   "fieldtype": "Link",
   "label": "Gesetzlicher Vertreter 1 Adresse",
   "options": "Address"
  },
  {
   "collapsible": 1,
   "depends_on": "eval:doc.urteilsunfaehig=='Ja'",
   "fieldname": "section_gesetzlicher_vertreter_2",
   "fieldtype": "Section Break",
   "label": "Gesetzlicher Vertreter 2"
  },
  {
   "fetch_from": "ges_ver_2_contact.first_name",
   "fieldname": "ges_ver_2_vorname",
   "fieldtype": "Data",
   "label": "Vorname (Ges.-Ver. 2)"
  },
  {
   "fetch_from": "ges_ver_2_contact.last_name",
   "fieldname": "ges_ver_2_nachname",
   "fieldtype": "Data",
   "label": "Nachname (Ges.-Ver. 2)"
  },
  {
   "fetch_from": "ges_ver_2_contact.geburtsdatum",
   "fieldname": "ges_ver_2_geburtsdatum",
   "fieldtype": "Date",
   "label": "Geburtsdatum (Ges.-Ver. 2)"
  },
  {
   "fetch_from": "ges_ver_2_contact.phone",
   "fieldname": "ges_ver_2_telefon",
   "fieldtype": "Data",
   "label": "Telefon (Ges.-Ver. 2)"
  },
  {
   "fetch_from": "ges_ver_2_contact.mobile_no",
   "fieldname": "ges_ver_2_mobile",
   "fieldtype": "Data",
   "label": "Mobile (Ges.-Ver. 2)"
  },
  {
   "fetch_from": "ges_ver_2_contact.email_id",
   "fieldname": "ges_ver_2_email",
   "fieldtype": "Data",
   "label": "E-Mail (Ges.-Ver. 2)"
  },
  {
   "fieldname": "cb_ges_ver_2",
   "fieldtype": "Column Break"
  },
  {
   "fetch_from": "ges_ver_2_address.address_line1",
   "fieldname": "ges_ver_2_strasse",
   "fieldtype": "Data",
   "label": "Strasse und Hausnummer (Ges.-Ver. 2)"
  },
  {
   "fetch_from": "ges_ver_2_address.address_line2",
   "fieldname": "ges_ver_2_zusatz",
   "fieldtype": "Data",
   "label": "Adress zusatz (Ges.-Ver. 2)"
  },
  {
   "fetch_from": "ges_ver_2_address.plz",
   "fieldname": "ges_ver_2_plz",
   "fieldtype": "Data",
   "label": "PLZ (Ges.-Ver. 2)"
  },
  {
   "fetch_from": "ges_ver_2_address.city",
   "fieldname": "ges_ver_2_ort",
   "fieldtype": "Data",
   "label": "Ort (Ges.-Ver. 2)"
  },
  {
   "fetch_from": "ges_ver_2_address.kanton",
   "fieldname": "ges_ver_2_kanton",
   "fieldtype": "Select",
   "label": "Kanton (Ges.-Ver. 2)"
  },
  {
   "fieldname": "cb_ges_ver_links",
   "fieldtype": "Column Break"
  },
  {
   "fieldname": "ges_ver_2",
   "fieldtype": "Link",
   "label": "Gesetzlicher Vertreter 2",
   "options": "Customer"
  },
  {
   "fieldname": "ges_ver_2_contact",
   "fieldtype": "Link",
   "label": "Gesetzlicher Vertreter 2 Kontakt",
   "options": "Contact"
  },
  {
   "fieldname": "ges_ver_2_address",
   "fieldtype": "Link",
   "label": "Gesetzlicher Vertreter 2 Adresse",
   "options": "Address"
  },
  {
   "default": "Z\u00fcrich (Hochformat)",
   "fieldname": "fusszeile",
   "fieldtype": "Link",
   "label": "Fusszeile",
   "options": "Letter Head"
  }
 ],
 "icon": "fa fa-question",
 "is_submittable": 1,
 "modified": "2022-01-30 20:58:16.103847",
 "modified_by": "joel.mesmer@libracore.com",
 "module": "SPO",
 "name": "Anfrage",
 "owner": "Administrator",
 "permissions": [
  {
   "create": 1,
   "delete": 1,
   "email": 1,
   "export": 1,
   "print": 1,
   "read": 1,
   "report": 1,
   "role": "System Manager",
   "share": 1,
   "write": 1
  },
  {
   "amend": 1,
   "create": 1,
   "delete": 1,
   "email": 1,
   "export": 1,
   "print": 1,
   "read": 1,
   "report": 1,
   "role": "SPO Poweruser",
   "share": 1,
   "write": 1
  }
 ],
 "show_preview_popup": 1,
 "sort_field": "modified",
 "sort_order": "ASC",
 "track_changes": 1
}